agriculture_soc_main/Bus_Components/RTC/waveform.vcd
$version Generated by VerilatedVcd $end
$timescale 1ps $end
 $scope module $rootio $end
 $upscope $end
 $scope module $unit $end
  $var wire 8 Y PERIPHID0 [7:0] $end
  $var wire 8 Z PERIPHID1 [7:0] $end
  $var wire 4 [ PERIPHID2 [3:0] $end
  $var wire 8 \ PERIPHID3 [7:0] $end
  $var wire 8 ] PCELLID0 [7:0] $end
  $var wire 8 ^ PCELLID1 [7:0] $end
  $var wire 8 _ PCELLID2 [7:0] $end
  $var wire 8 ` PCELLID3 [7:0] $end
  $var wire 10 a PADDR_RTCDR [9:0] $end
  $var wire 10 b PADDR_RTCMR [9:0] $end
  $var wire 10 c PADDR_RTCLR [9:0] $end
  $var wire 10 d PADDR_RTCCR [9:0] $end
  $var wire 10 e PADDR_RTCIMSC [9:0] $end
  $var wire 10 f PADDR_RTCRIS [9:0] $end
  $var wire 10 g PADDR_RTCMIS [9:0] $end
  $var wire 10 h PADDR_RTCICR [9:0] $end
  $var wire 10 i PADDR_RTCITCR [9:0] $end
  $var wire 10 j PADDR_RTCITOP [9:0] $end
  $var wire 10 k PADDR_RTCTOFFSET [9:0] $end
  $var wire 10 l PADDR_RTCTCOUNT [9:0] $end
  $var wire 10 m PADDR_PERIPHID0 [9:0] $end
  $var wire 10 n PADDR_PERIPHID1 [9:0] $end
  $var wire 10 o PADDR_PERIPHID2 [9:0] $end
  $var wire 10 p PADDR_PERIPHID3 [9:0] $end
  $var wire 10 q PADDR_PRIMECELLID0 [9:0] $end
  $var wire 10 r PADDR_PRIMECELLID1 [9:0] $end
  $var wire 10 s PADDR_PRIMECELLID2 [9:0] $end
  $var wire 10 t PADDR_PRIMECELLID3 [9:0] $end
 $upscope $end
 $scope module rtc_control_tb $end
  $var wire 32 I DATA_WIDTH [31:0] $end
  $var wire 32 J ADDR_WIDTH [31:0] $end
  $var wire 1 = PCLK $end
  $var wire 1 > PRESETn $end
  $var wire 1 # PSEL $end
  $var wire 1 $ PENABLE $end
  $var wire 1 % PWRITE $end
  $var wire 12 & PADDR [11:0] $end
  $var wire 32 ' PWDATA [31:0] $end
  $var wire 32 ? PRDATA [31:0] $end
  $var wire 1 - PREADY $end
  $var wire 1 K PSLVERR $end
  $var wire 1 @ CLK1HZ $end
  $var wire 1 A nRTCRST $end
  $var wire 1 B nPOR $end
  $var wire 1 C RTCINTR $end
  $var wire 1 C rtc_trig $end
  $var wire 1 ( ctrl_read_time_en $end
  $var wire 32 . ctrl_time_value [31:0] $end
  $var wire 1 ) ctrl_set_match_en $end
  $var wire 32 * ctrl_match_value [31:0] $end
  $var wire 1 D ctrl_clear_intr $end
  $var wire 1 C ctrl_intr_flag $end
  $var wire 1 E test_mask_enable $end
  $var wire 32 + timeout_counter [31:0] $end
  $var wire 32 , apb_write_extended__Vstatic__i [31:0] $end
  $scope module dut $end
   $var wire 32 I DATA_WIDTH [31:0] $end
   $var wire 32 J ADDR_WIDTH [31:0] $end
   $var wire 1 = PCLK $end
   $var wire 1 > PRESETn $end
   $var wire 1 # PSEL $end
   $var wire 1 $ PENABLE $end
   $var wire 1 % PWRITE $end
   $var wire 12 & PADDR [11:0] $end
   $var wire 32 ' PWDATA [31:0] $end
   $var wire 32 ? PRDATA [31:0] $end
   $var wire 1 - PREADY $end
   $var wire 1 K PSLVERR $end
   $var wire 1 @ CLK1HZ $end
   $var wire 1 A nRTCRST $end
   $var wire 1 B nPOR $end
   $var wire 1 C RTCINTR $end
   $var wire 1 C rtc_trig $end
   $var wire 1 ( ctrl_read_time_en $end
   $var wire 32 . ctrl_time_value [31:0] $end
   $var wire 1 ) ctrl_set_match_en $end
   $var wire 32 * ctrl_match_value [31:0] $end
   $var wire 1 D ctrl_clear_intr $end
   $var wire 1 C ctrl_intr_flag $end
   $var wire 1 E test_mask_enable $end
   $var wire 3 L ST_IDLE [2:0] $end
   $var wire 3 M ST_SETUP [2:0] $end
   $var wire 3 N ST_WRITE [2:0] $end
   $var wire 3 O ST_READ [2:0] $end
   $var wire 3 P ST_RESP [2:0] $end
   $var wire 3 9 state [2:0] $end
   $var wire 3 F next_state [2:0] $end
   $var wire 12 Q ADDR_RTCDR [11:0] $end
   $var wire 12 R ADDR_RTCMR [11:0] $end
   $var wire 12 S ADDR_RTCLR [11:0] $end
   $var wire 12 T ADDR_RTCCR [11:0] $end
   $var wire 12 U ADDR_RTCIMSC [11:0] $end
   $var wire 12 V ADDR_RTCRIS [11:0] $end
   $var wire 12 W ADDR_RTCMIS [11:0] $end
   $var wire 12 X ADDR_RTCICR [11:0] $end
   $var wire 32 / RTCLR_reg [31:0] $end
   $var wire 1 : RTCCR_enable $end
   $var wire 1 0 RTCIMSC_reg $end
   $var wire 1 ; apb_clear_req $end
   $var wire 32 < RTCMR_reg [31:0] $end
   $var wire 32 1 counter_sync [31:0] $end
   $var wire 32 4 rtc_counter_1hz [31:0] $end
   $var wire 1 2 load_req_latched $end
   $var wire 1 G load_req_1hz $end
   $var wire 1 5 load_req_ack $end
   $var wire 1 6 intr_flag $end
   $var wire 1 H clear_intr_req $end
   $var wire 1 7 clear_intr_req_sync_ff $end
   $var wire 1 8 clear_intr_req_sync $end
   $var wire 1 C masked_intr $end
   $var wire 32 3 counter_sync_ff [31:0] $end
  $upscope $end
 $upscope $end
$enddefinitions $end


#0
0#
0$
0%
b000000000000 &
b00000000000000000000000000000000 '
0(
0)
b00000000000000000000000000000000 *
b00000000000000000000000000000000 +
b00000000000000000000000000000000 ,
0-
b00000000000000000000000000000000 .
b00000000000000000000000000000000 /
00
b00000000000000000000000000000000 1
02
b00000000000000000000000000000000 3
b00000000000000000000000000000000 4
05
06
07
08
b000 9
0:
0;
b00000000000000000000000000000000 <
0=
0>
b00000000000000000000000000000000 ?
0@
0A
0B
0C
0D
1E
b000 F
0G
0H
b00000000000000000000000000100000 I
b00000000000000000000000000001100 J
0K
b000 L
b001 M
b010 N
b011 O
b100 P
b001000000000 Q
b001000000100 R
b001000001000 S
b001000001100 T
b001000010000 U
b001000010100 V
b001000011000 W
b001000011100 X
b00110001 Y
b00010000 Z
b0100 [
b00000000 \
b00001101 ]
b11110000 ^
b00000101 _
b10110001 `
b0000000000 a
b0000000001 b
b0000000010 c
b0000000011 d
b0000000100 e
b0000000101 f
b0000000110 g
b0000000111 h
b0000100000 i
b0000100010 j
b0000100011 k
b0000100100 l
b1111111000 m
b1111111001 n
b1111111010 o
b1111111011 p
b1111111100 q
b1111111101 r
b1111111110 s
b1111111111 t
#5000
1=
#10000
0=
#15000
1=
#20000
0=
1>
1A
1B
#25000
1=
#30000
0=
#35000
1=
#40000
0=
#45000
1=
#50000
b00000000000000000000000000000001 4
16
0=
1@
#55000
1#
1%
b001000001000 &
b00000000000000000000000001100100 '
b00000000000000000000000000000001 3
b001 9
1=
b001 F
#60000
0=
#65000
1$
b00000000000000000000000000000001 1
b010 9
1=
b100 F
#70000
0=
#75000
b00000000000000000000000000000001 ,
1-
b00000000000000000000000001100100 /
12
b100 9
1=
b00000000000000000000000001100100 ?
b000 F
#80000
0=
#85000
b00000000000000000000000000000010 ,
0-
b000 9
1=
b00000000000000000000000000000000 ?
#90000
0=
#95000
b00000000000000000000000000000011 ,
1=
#100000
0=
0@
#105000
b00000000000000000000000000000100 ,
1=
#110000
0=
#115000
b00000000000000000000000000000101 ,
1=
#120000
0=
#125000
b00000000000000000000000000000110 ,
1=
#130000
0=
#135000
b00000000000000000000000000000111 ,
1=
#140000
0=
#145000
b00000000000000000000000000001000 ,
1=
#150000
b00000000000000000000000000000010 4
0=
1@
1G
#155000
b00000000000000000000000000001001 ,
b00000000000000000000000000000010 3
1=
#160000
0=
#165000
b00000000000000000000000000001010 ,
b00000000000000000000000000000010 1
1=
#170000
0=
#175000
b00000000000000000000000000001011 ,
1=
#180000
0=
#185000
b00000000000000000000000000001100 ,
1=
#190000
0=
#195000
b00000000000000000000000000001101 ,
1=
#200000
0=
0@
#205000
b00000000000000000000000000001110 ,
1=
#210000
0=
#215000
b00000000000000000000000000001111 ,
1=
#220000
0=
#225000
b00000000000000000000000000010000 ,
1=
#230000
0=
#235000
b00000000000000000000000000010001 ,
1=
#240000
0=
#245000
b00000000000000000000000000010010 ,
1=
#250000
b00000000000000000000000001100100 4
15
0=
1@
#255000
b00000000000000000000000000010011 ,
02
b00000000000000000000000001100100 3
1=
#260000
0=
#265000
0#
0$
0%
b00000000000000000000000000010100 ,
b00000000000000000000000001100100 1
1=
#270000
0=
#275000
1=
#280000
0=
#285000
1=
#290000
0=
#295000
1=
#300000
0=
0@
#305000
1=
#310000
0=
#315000
1=
#320000
0=
#325000
1=
#330000
0=
#335000
1=
#340000
0=
#345000
1=
#350000
0=
1@
0G
#355000
1=
#360000
0=
#365000
1=
#370000
0=
#375000
1=
#380000
0=
#385000
1=
#390000
0=
#395000
1=
#400000
0=
0@
#405000
1=
#410000
0=
#415000
1=
#420000
0=
#425000
1=
#430000
0=
#435000
1=
#440000
0=
#445000
1=
#450000
b00000000000000000000000001100101 4
05
0=
1@
#455000
b00000000000000000000000001100101 3
1=
#460000
0=
#465000
b00000000000000000000000001100101 1
1=
#470000
0=
#475000
1=
#480000
0=
#485000
1=
#490000
0=
#495000
1=
#500000
0=
0@
#505000
1=
#510000
0=
#515000
1=
#520000
0=
#525000
1=
#530000
0=
#535000
1=
#540000
0=
#545000
1=
#550000
b00000000000000000000000001100110 4
0=
1@
#555000
b00000000000000000000000001100110 3
1=
#560000
0=
#565000
b00000000000000000000000001100110 1
1=
#570000
0=
#575000
1=
#580000
0=
#585000
1=
#590000
0=
#595000
1=
#600000
0=
0@
#605000
1=
#610000
0=
#615000
1=
#620000
0=
#625000
1=
#630000
0=
#635000
1=
#640000
0=
#645000
1=
#650000
b00000000000000000000000001100111 4
0=
1@
#655000
b00000000000000000000000001100111 3
1=
#660000
0=
#665000
b00000000000000000000000001100111 1
1=
#670000
0=
#675000
1=
#680000
0=
#685000
1=
#690000
0=
#695000
1=
#700000
0=
0@
#705000
1=
#710000
0=
#715000
1=
#720000
0=
#725000
1=
#730000
0=
#735000
1=
#740000
0=
#745000
1=
#750000
b00000000000000000000000001101000 4
0=
1@
#755000
b00000000000000000000000001101000 3
1=
#760000
0=
#765000
b00000000000000000000000001101000 1
1=
#770000
0=
#775000
1=
#780000
0=
#785000
1=
#790000
0=
#795000
1=
#800000
0=
0@
#805000
1=
#810000
0=
#815000
1=
#820000
0=
#825000
1=
#830000
0=
#835000
1=
#840000
0=
#845000
1=
#850000
b00000000000000000000000001101001 4
0=
1@
#855000
b00000000000000000000000001101001 3
1=
#860000
0=
#865000
b00000000000000000000000001101001 1
1=
#870000
0=
#875000
1=
#880000
0=
#885000
1=
#890000
0=
#895000
1=
#900000
0=
0@
#905000
1=
#910000
0=
#915000
1=
#920000
0=
#925000
1=
#930000
0=
#935000
1=
#940000
0=
#945000
1=
#950000
b00000000000000000000000001101010 4
0=
1@
#955000
b00000000000000000000000001101010 3
1=
#960000
0=
#965000
b00000000000000000000000001101010 1
1=
#970000
0=
#975000
1=
#980000
0=
#985000
1=
#990000
0=
#995000
1=
#1000000
0=
0@
#1005000
1=
#1010000
0=
#1015000
1=
#1020000
0=
#1025000
1=
#1030000
0=
#1035000
1=
#1040000
0=
#1045000
1=
#1050000
b00000000000000000000000001101011 4
0=
1@
#1055000
b00000000000000000000000001101011 3
1=
#1060000
0=
#1065000
b00000000000000000000000001101011 1
1=
#1070000
0=
#1075000
1=
#1080000
0=
#1085000
1=
#1090000
0=
#1095000
1=
#1100000
0=
0@
#1105000
1=
#1110000
0=
#1115000
1=
#1120000
0=
#1125000
1=
#1130000
0=
#1135000
1=
#1140000
0=
#1145000
1=
#1150000
b00000000000000000000000001101100 4
0=
1@
#1155000
b00000000000000000000000001101100 3
1=
#1160000
0=
#1165000
b00000000000000000000000001101100 1
1=
#1170000
0=
#1175000
1=
#1180000
0=
#1185000
1=
#1190000
0=
#1195000
1=
#1200000
0=
0@
#1205000
1=
#1210000
0=
#1215000
1=
#1220000
0=
#1225000
1=
#1230000
0=
#1235000
1=
#1240000
0=
#1245000
1=
#1250000
b00000000000000000000000001101101 4
0=
1@
#1255000
b00000000000000000000000001101101 3
1=
#1260000
0=
#1265000
b00000000000000000000000001101101 1
1=
#1270000
0=
#1275000
1#
1%
b001000001100 &
b00000000000000000000000000000001 '
b001 9
1=
b001 F
#1280000
0=
#1285000
1$
b010 9
1=
b100 F
#1290000
0=
#1295000
b00000000000000000000000000000001 ,
1-
b100 9
1:
1=
b00000000000000000000000000000001 ?
b000 F
#1300000
0=
0@
#1305000
b00000000000000000000000000000010 ,
0-
b000 9
1=
b00000000000000000000000000000000 ?
#1310000
0=
#1315000
b00000000000000000000000000000011 ,
1=
#1320000
0=
#1325000
b00000000000000000000000000000100 ,
1=
#1330000
0=
#1335000
b00000000000000000000000000000101 ,
1=
#1340000
0=
#1345000
b00000000000000000000000000000110 ,
1=
#1350000
b00000000000000000000000001101110 4
0=
1@
#1355000
b00000000000000000000000000000111 ,
b00000000000000000000000001101110 3
1=
#1360000
0=
#1365000
b00000000000000000000000000001000 ,
b00000000000000000000000001101110 1
1=
#1370000
0=
#1375000
b00000000000000000000000000001001 ,
1=
#1380000
0=
#1385000
b00000000000000000000000000001010 ,
1=
#1390000
0=
#1395000
b00000000000000000000000000001011 ,
1=
#1400000
0=
0@
#1405000
b00000000000000000000000000001100 ,
1=
#1410000
0=
#1415000
b00000000000000000000000000001101 ,
1=
#1420000
0=
#1425000
b00000000000000000000000000001110 ,
1=
#1430000
0=
#1435000
b00000000000000000000000000001111 ,
1=
#1440000
0=
#1445000
b00000000000000000000000000010000 ,
1=
#1450000
b00000000000000000000000001101111 4
0=
1@
#1455000
b00000000000000000000000000010001 ,
b00000000000000000000000001101111 3
1=
#1460000
0=
#1465000
b00000000000000000000000000010010 ,
b00000000000000000000000001101111 1
1=
#1470000
0=
#1475000
b00000000000000000000000000010011 ,
1=
#1480000
0=
#1485000
0#
0$
0%
b00000000000000000000000000010100 ,
1=
#1490000
0=
#1495000
1=
#1500000
0=
0@
#1505000
1=
#1510000
0=
#1515000
1=
#1520000
0=
#1525000
1=
#1530000
0=
#1535000
1=
#1540000
0=
#1545000
1=
#1550000
b00000000000000000000000001110000 4
0=
1@
#1555000
b00000000000000000000000001110000 3
1=
#1560000
0=
#1565000
b00000000000000000000000001110000 1
1=
#1570000
0=
#1575000
1=
#1580000
0=
#1585000
1=
#1590000
0=
#1595000
1=
#1600000
0=
0@
#1605000
1=
#1610000
0=
#1615000
1=
#1620000
0=
#1625000
1=
#1630000
0=
#1635000
1=
#1640000
0=
#1645000
1=
#1650000
b00000000000000000000000001110001 4
0=
1@
#1655000
b00000000000000000000000001110001 3
1=
#1660000
0=
#1665000
b00000000000000000000000001110001 1
1=
#1670000
0=
#1675000
1=
#1680000
0=
#1685000
1=
#1690000
0=
#1695000
1=
#1700000
0=
0@
#1705000
1=
#1710000
0=
#1715000
1=
#1720000
0=
#1725000
1=
#1730000
0=
#1735000
1=
#1740000
0=
#1745000
1=
#1750000
b00000000000000000000000001110010 4
0=
1@
#1755000
b00000000000000000000000001110010 3
1=
#1760000
0=
#1765000
b00000000000000000000000001110010 1
1=
#1770000
0=
#1775000
1=
#1780000
0=
#1785000
1=
#1790000
0=
#1795000
1=
#1800000
0=
0@
#1805000
1=
#1810000
0=
#1815000
1=
#1820000
0=
#1825000
1=
#1830000
0=
#1835000
1=
#1840000
0=
#1845000
1=
#1850000
b00000000000000000000000001110011 4
0=
1@
#1855000
b00000000000000000000000001110011 3
1=
#1860000
0=
#1865000
b00000000000000000000000001110011 1
1=
#1870000
0=
#1875000
1=
#1880000
0=
#1885000
1=
#1890000
0=
#1895000
1=
#1900000
0=
0@
#1905000
1=
#1910000
0=
#1915000
1=
#1920000
0=
#1925000
1=
#1930000
0=
#1935000
1=
#1940000
0=
#1945000
1=
#1950000
b00000000000000000000000001110100 4
0=
1@
#1955000
b00000000000000000000000001110100 3
1=
#1960000
0=
#1965000
b00000000000000000000000001110100 1
1=
#1970000
0=
#1975000
1=
#1980000
0=
#1985000
1=
#1990000
0=
#1995000
1=
#2000000
0=
0@
#2005000
1=
#2010000
0=
#2015000
1=
#2020000
0=
#2025000
1=
#2030000
0=
#2035000
1=
#2040000
0=
#2045000
1=
#2050000
b00000000000000000000000001110101 4
0=
1@
#2055000
b00000000000000000000000001110101 3
1=
#2060000
0=
#2065000
b00000000000000000000000001110101 1
1=
#2070000
0=
#2075000
1=
#2080000
0=
#2085000
1=
#2090000
0=
#2095000
1=
#2100000
0=
0@
#2105000
1=
#2110000
0=
#2115000
1=
#2120000
0=
#2125000
1=
#2130000
0=
#2135000
1=
#2140000
0=
#2145000
1=
#2150000
b00000000000000000000000001110110 4
0=
1@
#2155000
b00000000000000000000000001110110 3
1=
#2160000
0=
#2165000
b00000000000000000000000001110110 1
1=
#2170000
0=
#2175000
1=
#2180000
0=
#2185000
1=
#2190000
0=
#2195000
1=
#2200000
0=
0@
#2205000
1=
#2210000
0=
#2215000
1=
#2220000
0=
#2225000
1=
#2230000
0=
#2235000
1=
#2240000
0=
#2245000
1=
#2250000
b00000000000000000000000001110111 4
0=
1@
#2255000
b00000000000000000000000001110111 3
1=
#2260000
0=
#2265000
b00000000000000000000000001110111 1
1=
#2270000
0=
#2275000
1=
#2280000
0=
#2285000
1=
#2290000
0=
#2295000
1=
#2300000
0=
0@
#2305000
1=
#2310000
0=
#2315000
1=
#2320000
0=
#2325000
1=
#2330000
0=
#2335000
1=
#2340000
0=
#2345000
1=
#2350000
b00000000000000000000000001111000 4
0=
1@
#2355000
b00000000000000000000000001111000 3
1=
#2360000
0=
#2365000
b00000000000000000000000001111000 1
1=
#2370000
0=
#2375000
1=
#2380000
0=
#2385000
1=
#2390000
0=
#2395000
1=
#2400000
0=
0@
#2405000
1=
#2410000
0=
#2415000
1=
#2420000
0=
#2425000
1=
#2430000
0=
#2435000
1=
#2440000
0=
#2445000
1=
#2450000
b00000000000000000000000001111001 4
0=
1@
#2455000
b00000000000000000000000001111001 3
1=
#2460000
0=
#2465000
b00000000000000000000000001111001 1
1=
#2470000
0=
#2475000
1=
#2480000
0=
#2485000
1=
#2490000
0=
#2495000
1#
1%
b001000010000 &
b001 9
1=
b001 F
#2500000
0=
0@
#2505000
1$
b010 9
1=
b100 F
#2510000
0=
#2515000
b00000000000000000000000000000001 ,
1-
10
b100 9
1=
b00000000000000000000000000000001 ?
1C
b000 F
#2520000
0=
#2525000
b00000000000000000000000000000010 ,
0-
b000 9
1=
b00000000000000000000000000000000 ?
#2530000
0=
#2535000
b00000000000000000000000000000011 ,
1=
#2540000
0=
#2545000
b00000000000000000000000000000100 ,
1=
#2550000
b00000000000000000000000001111010 4
0=
1@
#2555000
b00000000000000000000000000000101 ,
b00000000000000000000000001111010 3
1=
#2560000
0=
#2565000
b00000000000000000000000000000110 ,
b00000000000000000000000001111010 1
1=
#2570000
0=
#2575000
b00000000000000000000000000000111 ,
1=
#2580000
0=
#2585000
b00000000000000000000000000001000 ,
1=
#2590000
0=
#2595000
b00000000000000000000000000001001 ,
1=
#2600000
0=
0@
#2605000
b00000000000000000000000000001010 ,
1=
#2610000
0=
#2615000
b00000000000000000000000000001011 ,
1=
#2620000
0=
#2625000
b00000000000000000000000000001100 ,
1=
#2630000
0=
#2635000
b00000000000000000000000000001101 ,
1=
#2640000
0=
#2645000
b00000000000000000000000000001110 ,
1=
#2650000
b00000000000000000000000001111011 4
0=
1@
#2655000
b00000000000000000000000000001111 ,
b00000000000000000000000001111011 3
1=
#2660000
0=
#2665000
b00000000000000000000000000010000 ,
b00000000000000000000000001111011 1
1=
#2670000
0=
#2675000
b00000000000000000000000000010001 ,
1=
#2680000
0=
#2685000
b00000000000000000000000000010010 ,
1=
#2690000
0=
#2695000
b00000000000000000000000000010011 ,
1=
#2700000
0=
0@
#2705000
0#
0$
0%
b00000000000000000000000000010100 ,
1=
#2710000
0=
#2715000
1=
#2720000
0=
#2725000
1=
#2730000
0=
#2735000
1=
#2740000
0=
#2745000
1=
#2750000
b00000000000000000000000001111100 4
0=
1@
#2755000
b00000000000000000000000001111100 3
1=
#2760000
0=
#2765000
b00000000000000000000000001111100 1
1=
#2770000
0=
#2775000
1=
#2780000
0=
#2785000
1=
#2790000
0=
#2795000
1=
#2800000
0=
0@
#2805000
1=
#2810000
0=
#2815000
1=
#2820000
0=
#2825000
1=
#2830000
0=
#2835000
1=
#2840000
0=
#2845000
1=
#2850000
b00000000000000000000000001111101 4
0=
1@
#2855000
b00000000000000000000000001111101 3
1=
#2860000
0=
#2865000
b00000000000000000000000001111101 1
1=
#2870000
0=
#2875000
1=
#2880000
0=
#2885000
1=
#2890000
0=
#2895000
1=
#2900000
0=
0@
#2905000
1=
#2910000
0=
#2915000
1=
#2920000
0=
#2925000
1=
#2930000
0=
#2935000
1=
#2940000
0=
#2945000
1=
#2950000
b00000000000000000000000001111110 4
0=
1@
#2955000
b00000000000000000000000001111110 3
1=
#2960000
0=
#2965000
b00000000000000000000000001111110 1
1=
#2970000
0=
#2975000
1=
#2980000
0=
#2985000
1=
#2990000
0=
#2995000
1=
#3000000
0=
0@
#3005000
1=
#3010000
0=
#3015000
1=
#3020000
0=
#3025000
1=
#3030000
0=
#3035000
1=
#3040000
0=
#3045000
1=
#3050000
b00000000000000000000000001111111 4
0=
1@
#3055000
b00000000000000000000000001111111 3
1=
#3060000
0=
#3065000
b00000000000000000000000001111111 1
1=
#3070000
0=
#3075000
1=
#3080000
0=
#3085000
1=
#3090000
0=
#3095000
1=
#3100000
0=
0@
#3105000
1=
#3110000
0=
#3115000
1=
#3120000
0=
#3125000
1=
#3130000
0=
#3135000
1=
#3140000
0=
#3145000
1=
#3150000
b00000000000000000000000010000000 4
0=
1@
#3155000
b00000000000000000000000010000000 3
1=
#3160000
0=
#3165000
b00000000000000000000000010000000 1
1=
#3170000
0=
#3175000
1=
#3180000
0=
#3185000
1=
#3190000
0=
#3195000
1=
#3200000
0=
0@
#3205000
1=
#3210000
0=
#3215000
1=
#3220000
0=
#3225000
1=
#3230000
0=
#3235000
1=
#3240000
0=
#3245000
1=
#3250000
b00000000000000000000000010000001 4
0=
1@
#3255000
b00000000000000000000000010000001 3
1=
#3260000
0=
#3265000
b00000000000000000000000010000001 1
1=
#3270000
0=
#3275000
1=
#3280000
0=
#3285000
1=
#3290000
0=
#3295000
1=
#3300000
0=
0@
#3305000
1=
#3310000
0=
#3315000
1=
#3320000
0=
#3325000
1=
#3330000
0=
#3335000
1=
#3340000
0=
#3345000
1=
#3350000
b00000000000000000000000010000010 4
0=
1@
#3355000
b00000000000000000000000010000010 3
1=
#3360000
0=
#3365000
b00000000000000000000000010000010 1
1=
#3370000
0=
#3375000
1=
#3380000
0=
#3385000
1=
#3390000
0=
#3395000
1=
#3400000
0=
0@
#3405000
1=
#3410000
0=
#3415000
1=
#3420000
0=
#3425000
1=
#3430000
0=
#3435000
1=
#3440000
0=
#3445000
1=
#3450000
b00000000000000000000000010000011 4
0=
1@
#3455000
b00000000000000000000000010000011 3
1=
#3460000
0=
#3465000
b00000000000000000000000010000011 1
1=
#3470000
0=
#3475000
1=
#3480000
0=
#3485000
1=
#3490000
0=
#3495000
1=
#3500000
0=
0@
#3505000
1=
#3510000
0=
#3515000
1=
#3520000
0=
#3525000
1=
#3530000
0=
#3535000
1=
#3540000
0=
#3545000
1=
#3550000
b00000000000000000000000010000100 4
0=
1@
#3555000
b00000000000000000000000010000100 3
1=
#3560000
0=
#3565000
b00000000000000000000000010000100 1
1=
#3570000
0=
#3575000
1=
#3580000
0=
#3585000
1=
#3590000
0=
#3595000
1=
#3600000
0=
0@
#3605000
1=
#3610000
0=
#3615000
1=
#3620000
0=
#3625000
1=
#3630000
0=
#3635000
1=
#3640000
0=
#3645000
1=
#3650000
b00000000000000000000000010000101 4
0=
1@
#3655000
b00000000000000000000000010000101 3
1=
#3660000
0=
#3665000
b00000000000000000000000010000101 1
1=
#3670000
0=
#3675000
1=
#3680000
0=
#3685000
1=
#3690000
0=
#3695000
1=
#3700000
0=
0@
#3705000
1=
#3710000
0=
#3715000
1=
#3720000
0=
#3725000
1=
#3730000
0=
#3735000
1=
#3740000
0=
#3745000
1=
#3750000
b00000000000000000000000010000110 4
0=
1@
#3755000
b00000000000000000000000010000110 3
1=
#3760000
0=
#3765000
b00000000000000000000000010000110 1
1=
#3770000
0=
#3775000
1=
#3780000
0=
#3785000
1=
#3790000
0=
#3795000
1=
#3800000
0=
0@
#3805000
1=
#3810000
0=
#3815000
1=
#3820000
0=
#3825000
1=
#3830000
0=
#3835000
1=
#3840000
0=
#3845000
1=
#3850000
b00000000000000000000000010000111 4
0=
1@
#3855000
b00000000000000000000000010000111 3
1=
#3860000
0=
#3865000
b00000000000000000000000010000111 1
1=
#3870000
0=
#3875000
1=
#3880000
0=
#3885000
1=
#3890000
0=
#3895000
1=
#3900000
0=
0@
#3905000
1=
#3910000
0=
#3915000
1=
#3920000
0=
#3925000
1=
#3930000
0=
#3935000
1=
#3940000
0=
#3945000
1=
#3950000
b00000000000000000000000010001000 4
0=
1@
#3955000
b00000000000000000000000010001000 3
1=
#3960000
0=
#3965000
b00000000000000000000000010001000 1
1=
#3970000
0=
#3975000
1=
#3980000
0=
#3985000
1=
#3990000
0=
#3995000
1=
#4000000
0=
0@
#4005000
1=
#4010000
0=
#4015000
1=
#4020000
0=
#4025000
1=
#4030000
0=
#4035000
1=
#4040000
0=
#4045000
1=
#4050000
b00000000000000000000000010001001 4
0=
1@
#4055000
b00000000000000000000000010001001 3
1=
#4060000
0=
#4065000
b00000000000000000000000010001001 1
1=
#4070000
0=
#4075000
1=
#4080000
0=
#4085000
1=
#4090000
0=
#4095000
1=
#4100000
0=
0@
#4105000
1=
#4110000
0=
#4115000
1=
#4120000
0=
#4125000
1=
#4130000
0=
#4135000
1=
#4140000
0=
#4145000
1=
#4150000
b00000000000000000000000010001010 4
0=
1@
#4155000
b00000000000000000000000010001010 3
1=
#4160000
0=
#4165000
b00000000000000000000000010001010 1
1=
#4170000
0=
#4175000
1=
#4180000
0=
#4185000
1=
#4190000
0=
#4195000
1=
#4200000
0=
0@
#4205000
1=
#4210000
0=
#4215000
1=
#4220000
0=
#4225000
1=
#4230000
0=
#4235000
1=
#4240000
0=
#4245000
1=
#4250000
b00000000000000000000000010001011 4
0=
1@
#4255000
b00000000000000000000000010001011 3
1=
#4260000
0=
#4265000
b00000000000000000000000010001011 1
1=
#4270000
0=
#4275000
1=
#4280000
0=
#4285000
1=
#4290000
0=
#4295000
1=
#4300000
0=
0@
#4305000
1=
#4310000
0=
#4315000
1=
#4320000
0=
#4325000
1=
#4330000
0=
#4335000
1=
#4340000
0=
#4345000
1=
#4350000
b00000000000000000000000010001100 4
0=
1@
#4355000
b00000000000000000000000010001100 3
1=
#4360000
0=
#4365000
b00000000000000000000000010001100 1
1=
#4370000
0=
#4375000
1=
#4380000
0=
#4385000
1=
#4390000
0=
#4395000
1=
#4400000
0=
0@
#4405000
1=
#4410000
0=
#4415000
1=
#4420000
0=
#4425000
1=
#4430000
0=
#4435000
1=
#4440000
0=
#4445000
1=
#4450000
b00000000000000000000000010001101 4
0=
1@
#4455000
b00000000000000000000000010001101 3
1=
#4460000
0=
#4465000
b00000000000000000000000010001101 1
1=
#4470000
0=
#4475000
1=
#4480000
0=
#4485000
1=
#4490000
0=
#4495000
1=
#4500000
0=
0@
#4505000
1=
#4510000
0=
#4515000
1=
#4520000
0=
#4525000
1=
#4530000
0=
#4535000
1=
#4540000
0=
#4545000
1=
#4550000
b00000000000000000000000010001110 4
0=
1@
#4555000
b00000000000000000000000010001110 3
1=
#4560000
0=
#4565000
b00000000000000000000000010001110 1
1=
#4570000
0=
#4575000
1=
#4580000
0=
#4585000
1=
#4590000
0=
#4595000
1=
#4600000
0=
0@
#4605000
1=
#4610000
0=
#4615000
1=
#4620000
0=
#4625000
1=
#4630000
0=
#4635000
1=
#4640000
0=
#4645000
1=
#4650000
b00000000000000000000000010001111 4
0=
1@
#4655000
b00000000000000000000000010001111 3
1=
#4660000
0=
#4665000
b00000000000000000000000010001111 1
1=
#4670000
0=
#4675000
1=
#4680000
0=
#4685000
1=
#4690000
0=
#4695000
1=
#4700000
0=
0@
#4705000
1=
#4710000
0=
#4715000
1=
#4720000
0=
#4725000
1=
#4730000
0=
#4735000
1=
#4740000
0=
#4745000
1=
#4750000
b00000000000000000000000010010000 4
0=
1@
#4755000
b00000000000000000000000010010000 3
1=
#4760000
0=
#4765000
b00000000000000000000000010010000 1
1=
#4770000
0=
#4775000
1=
#4780000
0=
#4785000
1=
#4790000
0=
#4795000
1=
#4800000
0=
0@
#4805000
1=
#4810000
0=
#4815000
1=
#4820000
0=
#4825000
1=
#4830000
0=
#4835000
1=
#4840000
0=
#4845000
1=
#4850000
b00000000000000000000000010010001 4
0=
1@
#4855000
b00000000000000000000000010010001 3
1=
#4860000
0=
#4865000
b00000000000000000000000010010001 1
1=
#4870000
0=
#4875000
1=
#4880000
0=
#4885000
1=
#4890000
0=
#4895000
1=
#4900000
0=
0@
#4905000
1=
#4910000
0=
#4915000
1=
#4920000
0=
#4925000
1=
#4930000
0=
#4935000
1=
#4940000
0=
#4945000
1=
#4950000
b00000000000000000000000010010010 4
0=
1@
#4955000
b00000000000000000000000010010010 3
1=
#4960000
0=
#4965000
b00000000000000000000000010010010 1
1=
#4970000
0=
#4975000
1=
#4980000
0=
#4985000
1=
#4990000
0=
#4995000
1=
#5000000
0=
0@
#5005000
1=
#5010000
0=
#5015000
1=
#5020000
0=
#5025000
1=
#5030000
0=
#5035000
1=
#5040000
0=
