agriculture_soc_main/FIFO/waveform.vcd
$version Generated by VerilatedVcd $end
$timescale 1ps $end
 $scope module $rootio $end
 $upscope $end
 $scope module fifo_apb_adc_tb $end
  $var wire 32 Q DATA_WIDTH [31:0] $end
  $var wire 32 R DEPTH [31:0] $end
  $var wire 1 P clk $end
  $var wire 1 # rst_n $end
  $var wire 1 $ adc_wr_en $end
  $var wire 56 % adc_data [55:0] $end
  $var wire 1 ) fifo_full $end
  $var wire 1 ' apb_rd_en $end
  $var wire 56 * apb_rd_data [55:0] $end
  $var wire 1 , fifo_empty $end
  $var wire 1 ( fifo_clear $end
  $scope module dut $end
   $var wire 32 Q DATA_WIDTH [31:0] $end
   $var wire 32 R DEPTH [31:0] $end
   $var wire 1 P clk $end
   $var wire 1 # rst_n $end
   $var wire 1 $ adc_wr_en $end
   $var wire 56 % adc_data [55:0] $end
   $var wire 1 ) fifo_full $end
   $var wire 1 ' apb_rd_en $end
   $var wire 56 * apb_rd_data [55:0] $end
   $var wire 1 , fifo_empty $end
   $var wire 1 ( fifo_clear $end
   $var wire 56 - fifo_mem[0] [55:0] $end
   $var wire 56 / fifo_mem[1] [55:0] $end
   $var wire 56 1 fifo_mem[2] [55:0] $end
   $var wire 56 3 fifo_mem[3] [55:0] $end
   $var wire 56 5 fifo_mem[4] [55:0] $end
   $var wire 56 7 fifo_mem[5] [55:0] $end
   $var wire 56 9 fifo_mem[6] [55:0] $end
   $var wire 56 ; fifo_mem[7] [55:0] $end
   $var wire 56 = fifo_mem[8] [55:0] $end
   $var wire 56 ? fifo_mem[9] [55:0] $end
   $var wire 56 A fifo_mem[10] [55:0] $end
   $var wire 56 C fifo_mem[11] [55:0] $end
   $var wire 56 E fifo_mem[12] [55:0] $end
   $var wire 56 G fifo_mem[13] [55:0] $end
   $var wire 56 I fifo_mem[14] [55:0] $end
   $var wire 56 K fifo_mem[15] [55:0] $end
   $var wire 4 M wr_ptr [3:0] $end
   $var wire 4 N rd_ptr [3:0] $end
   $var wire 5 O count [4:0] $end
  $upscope $end
 $upscope $end
$enddefinitions $end


#0
0#
0$
b00000000000000000000000000000000000000000000000000000000 %
0'
0(
0)
b00000000000000000000000000000000000000000000000000000000 *
1,
b00000000000000000000000000000000000000000000000000000000 -
b00000000000000000000000000000000000000000000000000000000 /
b00000000000000000000000000000000000000000000000000000000 1
b00000000000000000000000000000000000000000000000000000000 3
b00000000000000000000000000000000000000000000000000000000 5
b00000000000000000000000000000000000000000000000000000000 7
b00000000000000000000000000000000000000000000000000000000 9
b00000000000000000000000000000000000000000000000000000000 ;
b00000000000000000000000000000000000000000000000000000000 =
b00000000000000000000000000000000000000000000000000000000 ?
b00000000000000000000000000000000000000000000000000000000 A
b00000000000000000000000000000000000000000000000000000000 C
b00000000000000000000000000000000000000000000000000000000 E
b00000000000000000000000000000000000000000000000000000000 G
b00000000000000000000000000000000000000000000000000000000 I
b00000000000000000000000000000000000000000000000000000000 K
b0000 M
b0000 N
b00000 O
0P
b00000000000000000000000000111000 Q
b00000000000000000000000000010000 R
#5000
1P
#10000
0P
#15000
1P
#20000
1#
0P
#25000
1$
b01000000100101000010110001111001011101100111001111000100 %
b01000000100101000010110001111001011101100111001111000100 *
0,
b01000000100101000010110001111001011101100111001111000100 -
b0001 M
b00001 O
1P
#30000
0P
#35000
b00000000000100000010010100001011000111100101110110011100 %
b00000000000100000010010100001011000111100101110110011100 /
b0010 M
b00010 O
1P
#40000
0P
#45000
b01010111101011001011100110011110111111011101010100000010 %
b01010111101011001011100110011110111111011101010100000010 1
b0011 M
b00011 O
1P
#50000
0P
#55000
b00011101111000101001110001001000110000101110000011100100 %
b00011101111000101001110001001000110000101110000011100100 3
b0100 M
b00100 O
1P
#60000
0P
#65000
0$
b00001101100001001010010110010010000101111000001101111000 %
1P
#70000
0P
#75000
1P
#80000
0P
#85000
1P
#90000
1'
0P
#95000
b00000000000100000010010100001011000111100101110110011100 *
b0001 N
b00011 O
1P
#100000
0P
#105000
b01010111101011001011100110011110111111011101010100000010 *
b0010 N
b00010 O
1P
#110000
0P
#115000
b00011101111000101001110001001000110000101110000011100100 *
b0011 N
b00001 O
1P
#120000
0P
#125000
b00000000000000000000000000000000000000000000000000000000 *
1,
b0100 N
b00000 O
1P
#130000
0'
0P
#135000
1P
#140000
0P
#145000
1P
#150000
1(
0P
#155000
b01000000100101000010110001111001011101100111001111000100 *
b0000 M
b0000 N
1P
#160000
0(
0P
